165,121,377,121,377,144,165,144,1
164,194,258,194,258,212,164,212,2
456,193,541,193,541,211,456,211,2
164,295,232,295,232,313,164,313,2
455,294,519,294,519,314,455,314,2
486,334,523,334,523,349,486,349,2
603,335,661,335,661,352,603,352,2
165,395,210,395,210,415,165,415,2
452,395,576,395,576,414,452,414,2
160,500,232,500,232,516,160,516,2
