137,58,275,58,275,98,137,98,1
166,145,243,145,243,162,166,162,2
168,203,238,203,238,219,168,219,2
165,261,232,261,232,279,165,279,2
167,320,318,320,318,338,167,338,2
164,380,434,380,434,396,164,396,2
645,468,799,468,799,485,645,485,2
