371,86,654,86,654,112,371,112,1
371,163,414,163,414,179,371,179,2
369,233,440,233,440,250,369,250,2
653,232,709,232,709,249,653,249,2
373,303,413,303,413,317,373,317,2
370,372,499,372,499,391,370,391,2
