167,145,254,145,254,160,167,160,2
178,179,381,179,381,197,178,197,2
161,233,231,233,231,249,161,249,2
181,270,293,270,293,284,181,284,2
188,301,287,301,287,321,188,321,2
602,307,717,307,717,321,602,321,2
161,407,368,407,368,425,161,425,2
