49,36,163,36,163,52,49,52,2
49,187,103,187,103,202,49,202,2
59,78,173,78,173,96,59,96,2
56,232,219,232,219,246,56,246,2
49,272,183,272,183,283,49,283,2
50,395,261,395,261,415,50,415,2
58,442,158,442,158,459,58,459,2
68,481,188,481,188,495,68,495,3
63,120,185,120,185,136,63,136,3
48,546,204,546,204,562,48,562,2
