79,40,349,40,349,72,79,72,1
83,130,204,130,204,150,83,150,2
83,202,155,202,155,215,83,215,2
221,200,292,200,292,215,221,215,2
81,289,176,289,176,307,81,307,2
83,363,124,363,124,375,83,375,2
206,363,231,363,231,376,206,376,2
271,360,300,360,300,375,271,375,2
86,449,124,449,124,470,86,470,2
90,495,132,495,132,506,90,506,2
81,587,186,587,186,626,81,626,2
114,230,231,230,231,246,114,246,3
114,394,224,394,224,407,114,407,3
112,530,225,530,225,547,112,547,3
117,686,227,686,227,702,117,702,3
