57,49,335,49,335,78,57,78,1
57,170,138,170,138,184,57,184,2
58,250,128,250,128,267,58,267,2
392,249,456,249,456,264,392,264,2
58,345,123,345,123,359,58,359,2
57,424,147,424,147,438,57,438,2
55,518,181,518,181,532,55,532,2
58,607,89,607,89,622,58,622,2
393,607,485,607,485,622,393,622,2
77,277,193,277,193,291,77,291,3
77,725,189,725,189,739,77,739,3
