104,56,415,56,415,84,104,84,1
104,183,267,183,267,200,104,200,2
349,185,451,185,451,199,349,199,2
347,223,613,223,613,240,347,240,2
349,262,552,262,552,281,349,281,2
344,302,499,302,499,319,344,319,2
344,345,389,345,389,360,344,360,2
102,415,485,415,485,434,102,434,2
102,460,192,460,192,477,102,477,2
104,539,196,539,196,555,104,555,2
322,375,451,375,451,393,322,393,3
285,494,414,494,414,512,285,512,3
283,570,417,570,417,588,283,588,3
