94,51,303,51,303,78,94,78,1
90,115,211,115,211,135,90,135,2
470,117,584,117,584,132,470,132,2
120,169,276,169,276,188,120,188,2
501,167,564,167,564,190,501,190,2
576,163,719,163,719,194,576,194,3
303,171,407,171,407,188,303,188,3
665,483,789,483,789,498,665,498,3
93,249,180,249,180,266,93,266,2
122,300,186,300,186,320,122,320,2
91,382,152,382,152,397,91,397,2
118,433,316,433,316,453,118,453,2
