346,67,577,67,577,102,346,102,1
73,183,150,183,150,199,73,199,2
77,286,121,286,121,303,77,303,2
496,286,540,286,540,301,496,301,2
496,318,694,318,694,335,496,335,2
79,393,184,393,184,405,79,405,2
79,421,220,421,220,441,79,441,2
75,498,134,498,134,513,75,513,2
79,212,296,212,296,235,79,235,3
79,317,304,317,304,341,79,341,3
79,528,322,528,322,552,79,552,3
